{
	"name": "Суши ОК, сеть магазинов",
	"city": "г. Санкт-Петербург",
	"phone": "+7 (921) 096 - 55 -54",
	"control-phone": "+7 (921) 096 - 55 -54",
	"address": "ул. Торжковская 15",
	"mode": "9 20",
	"mode_weekend": "8 21",
	"work_start": 10,
	"work_stop": 22
}